{
  "items": [
    {
      "user": {
        "badge_counts": {
          "bronze": 1,
          "silver": 0,
          "gold": 0
        },
        "reputation": 1,
        "user_id": 6397070,
        "user_type": "registered",
        "profile_image": "https://www.gravatar.com/avatar/23b640990b54fd6ae21764ddf7fc91b9?s=128&d=identicon&r=PG&f=1",
        "display_name": "Jason",
        "link": "http://stackoverflow.com/users/6397070/jason"
      },
      "badge_type": "named",
      "rank": "bronze",
      "badge_id": 2600,
      "link": "http://stackoverflow.com/badges/2600/informed",
      "description": "Read the entire <a href=\"http://stackoverflow.com/tour\">tour</a> page",
      "name": "Informed"
    },
    {
      "user": {
        "badge_counts": {
          "bronze": 1,
          "silver": 0,
          "gold": 0
        },
        "reputation": 1,
        "user_id": 6397084,
        "user_type": "registered",
        "profile_image": "https://www.gravatar.com/avatar/2a13e90b4bc14172f66383799202c09f?s=128&d=identicon&r=PG&f=1",
        "display_name": "CarlaGaMe",
        "link": "http://stackoverflow.com/users/6397084/carlagame"
      },
      "badge_type": "named",
      "rank": "bronze",
      "badge_id": 2600,
      "link": "http://stackoverflow.com/badges/2600/informed",
      "description": "Read the entire <a href=\"http://stackoverflow.com/tour\">tour</a> page",
      "name": "Informed"
    },
    {
      "user": {
        "badge_counts": {
          "bronze": 1,
          "silver": 0,
          "gold": 0
        },
        "reputation": 1,
        "user_id": 6397050,
        "user_type": "registered",
        "profile_image": "https://www.gravatar.com/avatar/f83bbde6aaad3333b7d354ac711bb247?s=128&d=identicon&r=PG&f=1",
        "display_name": "BrickfieldCorp",
        "link": "http://stackoverflow.com/users/6397050/brickfieldcorp"
      },
      "badge_type": "named",
      "rank": "bronze",
      "badge_id": 2600,
      "link": "http://stackoverflow.com/badges/2600/informed",
      "description": "Read the entire <a href=\"http://stackoverflow.com/tour\">tour</a> page",
      "name": "Informed"
    },
    {
      "user": {
        "badge_counts": {
          "bronze": 559,
          "silver": 284,
          "gold": 44
        },
        "reputation": 86367,
        "user_id": 521799,
        "user_type": "registered",
        "accept_rate": 89,
        "profile_image": "https://www.gravatar.com/avatar/eb96efa7a5664ba1c4ebf586abd4121f?s=128&d=identicon&r=PG",
        "display_name": "Lukas Eder",
        "link": "http://stackoverflow.com/users/521799/lukas-eder"
      },
      "badge_type": "named",
      "rank": "silver",
      "badge_id": 261,
      "link": "http://stackoverflow.com/badges/261/booster",
      "description": "Share a link to a question later visited by 300 unique IP addresses",
      "name": "Booster"
    },
    {
      "user": {
        "badge_counts": {
          "bronze": 119,
          "silver": 67,
          "gold": 18
        },
        "reputation": 18775,
        "user_id": 361,
        "user_type": "registered",
        "accept_rate": 81,
        "profile_image": "https://www.gravatar.com/avatar/932a90d841204bed64a5165e591c5332?s=128&d=identicon&r=PG",
        "display_name": "stimms",
        "link": "http://stackoverflow.com/users/361/stimms"
      },
      "badge_type": "named",
      "rank": "bronze",
      "badge_id": 23,
      "link": "http://stackoverflow.com/badges/23/nice-answer",
      "description": "Answer score of 10 or more",
      "name": "Nice Answer"
    },
    {
      "user": {
        "badge_counts": {
          "bronze": 5,
          "silver": 1,
          "gold": 0
        },
        "reputation": 115,
        "user_id": 766301,
        "user_type": "registered",
        "profile_image": "https://www.gravatar.com/avatar/c10372fa185fe953f9546de18cc3ef0c?s=128&d=identicon&r=PG",
        "display_name": "Goulvench",
        "link": "http://stackoverflow.com/users/766301/goulvench"
      },
      "badge_type": "named",
      "rank": "bronze",
      "badge_id": 23,
      "link": "http://stackoverflow.com/badges/23/nice-answer",
      "description": "Answer score of 10 or more",
      "name": "Nice Answer"
    },
    {
      "user": {
        "badge_counts": {
          "bronze": 9,
          "silver": 1,
          "gold": 0
        },
        "reputation": 318,
        "user_id": 4808130,
        "user_type": "registered",
        "accept_rate": 67,
        "profile_image": "https://www.gravatar.com/avatar/1e816736690de7d0e59402409a14630f?s=128&d=identicon&r=PG&f=1",
        "display_name": "user1289",
        "link": "http://stackoverflow.com/users/4808130/user1289"
      },
      "badge_type": "named",
      "rank": "bronze",
      "badge_id": 20,
      "link": "http://stackoverflow.com/badges/20/nice-question",
      "description": "Question score of 10 or more",
      "name": "Nice Question"
    },
    {
      "user": {
        "badge_counts": {
          "bronze": 6,
          "silver": 0,
          "gold": 0
        },
        "reputation": 33,
        "user_id": 6391398,
        "user_type": "registered",
        "profile_image": "https://graph.facebook.com/1609350366049469/picture?type=large",
        "display_name": "Rocco T - RoccoDeveloping",
        "link": "http://stackoverflow.com/users/6391398/rocco-t-roccodeveloping"
      },
      "badge_type": "named",
      "rank": "bronze",
      "badge_id": 9,
      "link": "http://stackoverflow.com/badges/9/autobiographer",
      "description": "Complete &quot;About Me&quot; section of user profile",
      "name": "Autobiographer"
    },
    {
      "user": {
        "badge_counts": {
          "bronze": 10,
          "silver": 2,
          "gold": 0
        },
        "reputation": 301,
        "user_id": 1426008,
        "user_type": "registered",
        "profile_image": "https://www.gravatar.com/avatar/5e368f6704182031e71ebb2a764c5690?s=128&d=identicon&r=PG",
        "display_name": "Edris",
        "link": "http://stackoverflow.com/users/1426008/edris"
      },
      "badge_type": "named",
      "rank": "bronze",
      "badge_id": 31,
      "link": "http://stackoverflow.com/badges/31/commentator",
      "description": "Leave 10 comments",
      "name": "Commentator"
    },
    {
      "user": {
        "badge_counts": {
          "bronze": 4,
          "silver": 0,
          "gold": 0
        },
        "reputation": 32,
        "user_id": 6243038,
        "user_type": "registered",
        "profile_image": "https://i.stack.imgur.com/Qacf2.png?s=128&g=1",
        "display_name": "Zlixine",
        "link": "http://stackoverflow.com/users/6243038/zlixine"
      },
      "badge_type": "named",
      "rank": "bronze",
      "badge_id": 3,
      "link": "http://stackoverflow.com/badges/3/editor",
      "description": "First edit",
      "name": "Editor"
    },
    {
      "user": {
        "badge_counts": {
          "bronze": 14,
          "silver": 4,
          "gold": 0
        },
        "reputation": 420,
        "user_id": 2226328,
        "user_type": "registered",
        "accept_rate": 65,
        "profile_image": "https://i.stack.imgur.com/a5zkM.jpg?s=128&g=1",
        "display_name": "Frankenmint",
        "link": "http://stackoverflow.com/users/2226328/frankenmint"
      },
      "badge_type": "named",
      "rank": "silver",
      "badge_id": 71,
      "link": "http://stackoverflow.com/badges/71/enthusiast",
      "description": "Visit the site each day for 30 consecutive days. (Days are counted in <a href=\"http://en.wikipedia.org/wiki/Coordinated_Universal_Time\" rel=\"nofollow\">UTC</a>.)",
      "name": "Enthusiast"
    },
    {
      "user": {
        "badge_counts": {
          "bronze": 11,
          "silver": 2,
          "gold": 0
        },
        "reputation": 86,
        "user_id": 1088537,
        "user_type": "registered",
        "accept_rate": 42,
        "profile_image": "https://www.gravatar.com/avatar/e8909f90888f9593c86243311439feb2?s=128&d=identicon&r=PG",
        "display_name": "user1088537",
        "link": "http://stackoverflow.com/users/1088537/user1088537"
      },
      "badge_type": "named",
      "rank": "silver",
      "badge_id": 27,
      "link": "http://stackoverflow.com/badges/27/notable-question",
      "description": "Question with 2,500 views",
      "name": "Notable Question"
    },
    {
      "user": {
        "badge_counts": {
          "bronze": 67,
          "silver": 24,
          "gold": 2
        },
        "reputation": 1907,
        "user_id": 861181,
        "user_type": "registered",
        "accept_rate": 78,
        "profile_image": "https://i.stack.imgur.com/NgqeK.jpg?s=128&g=1",
        "display_name": "Stpn",
        "link": "http://stackoverflow.com/users/861181/stpn"
      },
      "badge_type": "named",
      "rank": "silver",
      "badge_id": 27,
      "link": "http://stackoverflow.com/badges/27/notable-question",
      "description": "Question with 2,500 views",
      "name": "Notable Question"
    },
    {
      "user": {
        "badge_counts": {
          "bronze": 32,
          "silver": 9,
          "gold": 0
        },
        "reputation": 877,
        "user_id": 2571639,
        "user_type": "registered",
        "accept_rate": 66,
        "profile_image": "https://www.gravatar.com/avatar/ba0dda104232b8012139990c18fe1f4e?s=128&d=identicon&r=PG",
        "display_name": "Imran",
        "link": "http://stackoverflow.com/users/2571639/imran"
      },
      "badge_type": "named",
      "rank": "silver",
      "badge_id": 27,
      "link": "http://stackoverflow.com/badges/27/notable-question",
      "description": "Question with 2,500 views",
      "name": "Notable Question"
    },
    {
      "user": {
        "badge_counts": {
          "bronze": 77,
          "silver": 35,
          "gold": 9
        },
        "reputation": 4348,
        "user_id": 1370927,
        "user_type": "registered",
        "accept_rate": 74,
        "profile_image": "https://i.stack.imgur.com/3Rl94.jpg?s=128&g=1",
        "display_name": "JuJoDi",
        "link": "http://stackoverflow.com/users/1370927/jujodi"
      },
      "badge_type": "named",
      "rank": "silver",
      "badge_id": 27,
      "link": "http://stackoverflow.com/badges/27/notable-question",
      "description": "Question with 2,500 views",
      "name": "Notable Question"
    },
    {
      "user": {
        "badge_counts": {
          "bronze": 25,
          "silver": 20,
          "gold": 6
        },
        "reputation": 3065,
        "user_id": 11452,
        "user_type": "registered",
        "accept_rate": 91,
        "profile_image": "https://www.gravatar.com/avatar/202d78cdb16badae34e55082cc7f465f?s=128&d=identicon&r=PG",
        "display_name": "Yeah.Right.",
        "link": "http://stackoverflow.com/users/11452/yeah-right"
      },
      "badge_type": "named",
      "rank": "silver",
      "badge_id": 27,
      "link": "http://stackoverflow.com/badges/27/notable-question",
      "description": "Question with 2,500 views",
      "name": "Notable Question"
    },
    {
      "user": {
        "badge_counts": {
          "bronze": 44,
          "silver": 12,
          "gold": 0
        },
        "reputation": 843,
        "user_id": 2309097,
        "user_type": "registered",
        "accept_rate": 73,
        "profile_image": "https://i.stack.imgur.com/I3w7w.png?s=128&g=1",
        "display_name": "Tasos",
        "link": "http://stackoverflow.com/users/2309097/tasos"
      },
      "badge_type": "named",
      "rank": "bronze",
      "badge_id": 26,
      "link": "http://stackoverflow.com/badges/26/popular-question",
      "description": "Question with 1,000 views",
      "name": "Popular Question"
    },
    {
      "user": {
        "badge_counts": {
          "bronze": 5,
          "silver": 0,
          "gold": 0
        },
        "reputation": 12,
        "user_id": 2949556,
        "user_type": "registered",
        "accept_rate": 60,
        "profile_image": "https://www.gravatar.com/avatar/05e94f2bd6866f235e44f8e9421dc981?s=128&d=identicon&r=PG&f=1",
        "display_name": "user2949556",
        "link": "http://stackoverflow.com/users/2949556/user2949556"
      },
      "badge_type": "named",
      "rank": "bronze",
      "badge_id": 26,
      "link": "http://stackoverflow.com/badges/26/popular-question",
      "description": "Question with 1,000 views",
      "name": "Popular Question"
    },
    {
      "user": {
        "badge_counts": {
          "bronze": 2,
          "silver": 0,
          "gold": 0
        },
        "reputation": 9,
        "user_id": 5633007,
        "user_type": "registered",
        "profile_image": "https://graph.facebook.com/10207955685268704/picture?type=large",
        "display_name": "Vonmood",
        "link": "http://stackoverflow.com/users/5633007/vonmood"
      },
      "badge_type": "named",
      "rank": "bronze",
      "badge_id": 2,
      "link": "http://stackoverflow.com/badges/2/student",
      "description": "First question with score of 1 or more",
      "name": "Student"
    },
    {
      "user": {
        "badge_counts": {
          "bronze": 2,
          "silver": 0,
          "gold": 0
        },
        "reputation": 6,
        "user_id": 6372310,
        "user_type": "registered",
        "profile_image": "https://www.gravatar.com/avatar/d59cfa83904d9b2088c6911d58c5710e?s=128&d=identicon&r=PG&f=1",
        "display_name": "Sneal Gomes",
        "link": "http://stackoverflow.com/users/6372310/sneal-gomes"
      },
      "badge_type": "named",
      "rank": "bronze",
      "badge_id": 2,
      "link": "http://stackoverflow.com/badges/2/student",
      "description": "First question with score of 1 or more",
      "name": "Student"
    },
    {
      "user": {
        "badge_counts": {
          "bronze": 1,
          "silver": 0,
          "gold": 0
        },
        "reputation": 6,
        "user_id": 6397020,
        "user_type": "registered",
        "profile_image": "https://www.gravatar.com/avatar/4191d5d1e719bf50764eef52c43b18ff?s=128&d=identicon&r=PG&f=1",
        "display_name": "Herawo",
        "link": "http://stackoverflow.com/users/6397020/herawo"
      },
      "badge_type": "named",
      "rank": "bronze",
      "badge_id": 2,
      "link": "http://stackoverflow.com/badges/2/student",
      "description": "First question with score of 1 or more",
      "name": "Student"
    },
    {
      "user": {
        "badge_counts": {
          "bronze": 4,
          "silver": 0,
          "gold": 0
        },
        "reputation": 8,
        "user_id": 6387212,
        "user_type": "registered",
        "profile_image": "https://www.gravatar.com/avatar/3af277c43673ef833055b0fef24b24fa?s=128&d=identicon&r=PG",
        "display_name": "trolbtrobl",
        "link": "http://stackoverflow.com/users/6387212/trolbtrobl"
      },
      "badge_type": "named",
      "rank": "bronze",
      "badge_id": 2,
      "link": "http://stackoverflow.com/badges/2/student",
      "description": "First question with score of 1 or more",
      "name": "Student"
    },
    {
      "user": {
        "badge_counts": {
          "bronze": 4,
          "silver": 0,
          "gold": 0
        },
        "reputation": 66,
        "user_id": 4944862,
        "user_type": "registered",
        "profile_image": "https://i.stack.imgur.com/5nSsf.jpg?s=128&g=1",
        "display_name": "PRINCE KUMAR",
        "link": "http://stackoverflow.com/users/4944862/prince-kumar"
      },
      "badge_type": "named",
      "rank": "bronze",
      "badge_id": 6,
      "link": "http://stackoverflow.com/badges/6/supporter",
      "description": "First up vote",
      "name": "Supporter"
    },
    {
      "user": {
        "badge_counts": {
          "bronze": 7,
          "silver": 0,
          "gold": 0
        },
        "reputation": 23,
        "user_id": 2279394,
        "user_type": "registered",
        "accept_rate": 50,
        "profile_image": "https://www.gravatar.com/avatar/669a71a29004a73f9007feb5bcb8038c?s=128&d=identicon&r=PG",
        "display_name": "mohab elamry",
        "link": "http://stackoverflow.com/users/2279394/mohab-elamry"
      },
      "badge_type": "named",
      "rank": "bronze",
      "badge_id": 6,
      "link": "http://stackoverflow.com/badges/6/supporter",
      "description": "First up vote",
      "name": "Supporter"
    },
    {
      "user": {
        "badge_counts": {
          "bronze": 4,
          "silver": 0,
          "gold": 0
        },
        "reputation": 32,
        "user_id": 6243038,
        "user_type": "registered",
        "profile_image": "https://i.stack.imgur.com/Qacf2.png?s=128&g=1",
        "display_name": "Zlixine",
        "link": "http://stackoverflow.com/users/6243038/zlixine"
      },
      "badge_type": "named",
      "rank": "bronze",
      "badge_id": 6,
      "link": "http://stackoverflow.com/badges/6/supporter",
      "description": "First up vote",
      "name": "Supporter"
    },
    {
      "user": {
        "badge_counts": {
          "bronze": 4,
          "silver": 0,
          "gold": 0
        },
        "reputation": 26,
        "user_id": 6105828,
        "user_type": "registered",
        "profile_image": "https://www.gravatar.com/avatar/8f3309015b582a271b66a7a49b806260?s=128&d=identicon&r=PG&f=1",
        "display_name": "Russ",
        "link": "http://stackoverflow.com/users/6105828/russ"
      },
      "badge_type": "named",
      "rank": "bronze",
      "badge_id": 1,
      "link": "http://stackoverflow.com/badges/1/teacher",
      "description": "Answer a question with score of 1 or more",
      "name": "Teacher"
    },
    {
      "user": {
        "badge_counts": {
          "bronze": 28,
          "silver": 17,
          "gold": 1
        },
        "reputation": 2215,
        "user_id": 114305,
        "user_type": "registered",
        "accept_rate": 70,
        "profile_image": "https://www.gravatar.com/avatar/36b73b10fd62ce36f8f435d1b0e6fd1a?s=128&d=identicon&r=PG",
        "display_name": "ErsatzRyan",
        "link": "http://stackoverflow.com/users/114305/ersatzryan"
      },
      "badge_type": "named",
      "rank": "silver",
      "badge_id": 13,
      "link": "http://stackoverflow.com/badges/13/yearling",
      "description": "Active member for a year, earning at least 200 reputation",
      "name": "Yearling"
    },
    {
      "user": {
        "badge_counts": {
          "bronze": 134,
          "silver": 77,
          "gold": 20
        },
        "reputation": 9647,
        "user_id": 1423787,
        "user_type": "registered",
        "accept_rate": 91,
        "profile_image": "https://i.stack.imgur.com/UQdmr.jpg?s=128&g=1",
        "display_name": "Lloyd Banks",
        "link": "http://stackoverflow.com/users/1423787/lloyd-banks"
      },
      "badge_type": "named",
      "rank": "silver",
      "badge_id": 13,
      "link": "http://stackoverflow.com/badges/13/yearling",
      "description": "Active member for a year, earning at least 200 reputation",
      "name": "Yearling"
    },
    {
      "user": {
        "badge_counts": {
          "bronze": 6,
          "silver": 5,
          "gold": 0
        },
        "reputation": 404,
        "user_id": 4800412,
        "user_type": "registered",
        "profile_image": "https://lh4.googleusercontent.com/-jP864sNULss/AAAAAAAAAAI/AAAAAAAAAc4/8s8UM2Nu0aE/photo.jpg?sz=128",
        "display_name": "Hamed Ghasemzadeh",
        "link": "http://stackoverflow.com/users/4800412/hamed-ghasemzadeh"
      },
      "badge_type": "named",
      "rank": "silver",
      "badge_id": 13,
      "link": "http://stackoverflow.com/badges/13/yearling",
      "description": "Active member for a year, earning at least 200 reputation",
      "name": "Yearling"
    },
    {
      "user": {
        "badge_counts": {
          "bronze": 18,
          "silver": 11,
          "gold": 0
        },
        "reputation": 1403,
        "user_id": 40807,
        "user_type": "registered",
        "profile_image": "https://www.gravatar.com/avatar/4570f4441adb99696044287e0afecfc9?s=128&d=identicon&r=PG",
        "display_name": "nsdel",
        "link": "http://stackoverflow.com/users/40807/nsdel"
      },
      "badge_type": "named",
      "rank": "silver",
      "badge_id": 13,
      "link": "http://stackoverflow.com/badges/13/yearling",
      "description": "Active member for a year, earning at least 200 reputation",
      "name": "Yearling"
    }
  ],
  "has_more": true,
  "quota_max": 10000,
  "quota_remaining": 9911,
  "page": 1,
  "page_size": 30,
  "total": 18236637,
  "type": "badge"
}